<svg width="512" height="512" viewBox="0 0 512 512" fill="none" xmlns="http://www.w3.org/2000/svg">
<path d="M64 128L12.8 512H499.2L448 128H64Z" fill="#9CCC65"/>
<path d="M134.4 512V275.2H377.6V512H134.4Z" fill="#B71C1C"/>
<path d="M243.2 294.4H153.6V499.2H243.2V294.4Z" fill="#FF5722"/>
<path d="M230.4 390.4H198.4V403.2H230.4V390.4Z" fill="#B71C1C"/>
<path d="M358.4 294.4H268.8V499.2H358.4V294.4Z" fill="#FF5722"/>
<path d="M313.6 390.4H281.6V403.2H313.6V390.4Z" fill="#B71C1C"/>
<path d="M358.4 217.6C372.538 217.6 384 206.138 384 192C384 177.861 372.538 166.4 358.4 166.4C344.261 166.4 332.8 177.861 332.8 192C332.8 206.138 344.261 217.6 358.4 217.6Z" fill="#2A6A27"/>
<path d="M153.6 217.6C167.738 217.6 179.2 206.138 179.2 192C179.2 177.861 167.738 166.4 153.6 166.4C139.462 166.4 128 177.861 128 192C128 206.138 139.462 217.6 153.6 217.6Z" fill="#2A6A27"/>
<path d="M153.6 191.999V134.562C153.6 97.8367 169.375 62.8806 196.913 38.5825L199.94 35.9109C235.049 4.93286 288.192 6.59199 321.3 39.6997C345.055 63.4542 358.4 95.6722 358.4 129.267V191.999" stroke="#388E3C" stroke-width="25.6" stroke-linecap="round"/>
</svg>
